dump.vcd
$date
	Sun Jun 25 10:08:43 2023
$end

$version
	Synopsys VCS version S-2021.09
$end

$timescale
	1ns
$end

$comment Csum: 1 643768dc328d8781 $end


$scope module top $end
$var reg 1 ! clk $end

$scope begin unnamed$$_vcs_4 $end
$upscope $end


$scope begin unnamed$$_vcs_0 $end
$upscope $end


$scope begin unnamed$$_vcs_1 $end
$upscope $end


$scope begin unnamed$$_vcs_2 $end
$upscope $end


$scope begin unnamed$$_vcs_3 $end
$upscope $end


$scope module dut_if $end
$var reg 1 " clk $end
$var reg 1 # reset_n $end
$var reg 1 $ encdec $end
$var reg 1 % init $end
$var reg 1 & next $end
$var reg 1 ' ready $end
$var reg 256 ( key [255:0] $end
$var reg 1 ) keylen $end
$var reg 128 * block [127:0] $end
$var reg 128 + result [127:0] $end
$var reg 1 , result_valid $end
$upscope $end


$scope module dut $end
$var wire 1 - clk $end
$var wire 1 . reset_n $end
$var wire 1 / encdec $end
$var wire 1 0 init $end
$var wire 1 1 next $end
$var wire 1 2 ready $end
$var wire 256 3 key [255:0] $end
$var wire 1 4 keylen $end
$var wire 128 5 block [127:0] $end
$var wire 128 6 result [127:0] $end
$var wire 1 7 result_valid $end
$var reg 2 8 aes_core_ctrl_reg [1:0] $end
$var reg 2 9 aes_core_ctrl_new [1:0] $end
$var reg 1 : aes_core_ctrl_we $end
$var reg 1 ; result_valid_reg $end
$var reg 1 < result_valid_new $end
$var reg 1 = result_valid_we $end
$var reg 1 > ready_reg $end
$var reg 1 ? ready_new $end
$var reg 1 @ ready_we $end
$var reg 1 A init_state $end
$var wire 128 B round_key [127:0] $end
$var wire 1 C key_ready $end
$var reg 1 D enc_next $end
$var wire 4 E enc_round_nr [3:0] $end
$var wire 128 F enc_new_block [127:0] $end
$var wire 1 G enc_ready $end
$var wire 32 H enc_sboxw [31:0] $end
$var reg 1 I dec_next $end
$var wire 4 J dec_round_nr [3:0] $end
$var wire 128 K dec_new_block [127:0] $end
$var wire 1 L dec_ready $end
$var reg 128 M muxed_new_block [127:0] $end
$var reg 4 N muxed_round_nr [3:0] $end
$var reg 1 O muxed_ready $end
$var wire 32 P keymem_sboxw [31:0] $end
$var reg 32 Q muxed_sboxw [31:0] $end
$var wire 32 R new_sboxw [31:0] $end

$scope begin reg_update $end
$upscope $end


$scope begin sbox_mux $end
$upscope $end


$scope begin encdec_mux $end
$upscope $end


$scope begin aes_core_ctrl $end
$upscope $end


$scope module enc_block $end
$var wire 1 - clk $end
$var wire 1 . reset_n $end
$var wire 1 D next $end
$var wire 1 4 keylen $end
$var wire 4 E round [3:0] $end
$var wire 128 B round_key [127:0] $end
$var wire 32 H sboxw [31:0] $end
$var wire 32 R new_sboxw [31:0] $end
$var wire 128 5 block [127:0] $end
$var wire 128 F new_block [127:0] $end
$var wire 1 G ready $end
$var reg 2 S sword_ctr_reg [1:0] $end
$var reg 2 T sword_ctr_new [1:0] $end
$var reg 1 U sword_ctr_we $end
$var reg 1 V sword_ctr_inc $end
$var reg 1 W sword_ctr_rst $end
$var reg 4 E round_ctr_reg [3:0] $end
$var reg 4 X round_ctr_new [3:0] $end
$var reg 1 Y round_ctr_we $end
$var reg 1 Z round_ctr_rst $end
$var reg 1 [ round_ctr_inc $end
$var reg 128 \ block_new [127:0] $end
$var reg 32 ] block_w0_reg [31:0] $end
$var reg 32 ^ block_w1_reg [31:0] $end
$var reg 32 _ block_w2_reg [31:0] $end
$var reg 32 ` block_w3_reg [31:0] $end
$var reg 1 a block_w0_we $end
$var reg 1 b block_w1_we $end
$var reg 1 c block_w2_we $end
$var reg 1 d block_w3_we $end
$var reg 1 G ready_reg $end
$var reg 1 e ready_new $end
$var reg 1 f ready_we $end
$var reg 2 g enc_ctrl_reg [1:0] $end
$var reg 2 h enc_ctrl_new [1:0] $end
$var reg 1 i enc_ctrl_we $end
$var reg 3 j update_type [2:0] $end
$var reg 32 H muxed_sboxw [31:0] $end

$scope function gm2 $end
$var reg 8 k gm2 [7:0] $end
$var reg 8 l op [7:0] $end
$upscope $end


$scope function gm3 $end
$var reg 8 m gm3 [7:0] $end
$var reg 8 n op [7:0] $end
$upscope $end


$scope function mixw $end
$var reg 32 o mixw [31:0] $end
$var reg 32 p w [31:0] $end
$var reg 8 q b0 [7:0] $end
$var reg 8 r b1 [7:0] $end
$var reg 8 s b2 [7:0] $end
$var reg 8 t b3 [7:0] $end
$var reg 8 u mb0 [7:0] $end
$var reg 8 v mb1 [7:0] $end
$var reg 8 w mb2 [7:0] $end
$var reg 8 x mb3 [7:0] $end
$upscope $end


$scope function mixcolumns $end
$var reg 128 y mixcolumns [127:0] $end
$var reg 128 z data [127:0] $end
$var reg 32 { w0 [31:0] $end
$var reg 32 | w1 [31:0] $end
$var reg 32 } w2 [31:0] $end
$var reg 32 ~ w3 [31:0] $end
$var reg 32 "! ws0 [31:0] $end
$var reg 32 "" ws1 [31:0] $end
$var reg 32 "# ws2 [31:0] $end
$var reg 32 "$ ws3 [31:0] $end
$upscope $end


$scope function shiftrows $end
$var reg 128 "% shiftrows [127:0] $end
$var reg 128 "& data [127:0] $end
$var reg 32 "' w0 [31:0] $end
$var reg 32 "( w1 [31:0] $end
$var reg 32 ") w2 [31:0] $end
$var reg 32 "* w3 [31:0] $end
$var reg 32 "+ ws0 [31:0] $end
$var reg 32 ", ws1 [31:0] $end
$var reg 32 "- ws2 [31:0] $end
$var reg 32 ". ws3 [31:0] $end
$upscope $end


$scope function addroundkey $end
$var reg 128 "/ addroundkey [127:0] $end
$var reg 128 "0 data [127:0] $end
$var reg 128 "1 rkey [127:0] $end
$upscope $end


$scope begin reg_update $end
$upscope $end


$scope begin round_logic $end
$var reg 128 "2 old_block [127:0] $end
$var reg 128 "3 shiftrows_block [127:0] $end
$var reg 128 "4 mixcolumns_block [127:0] $end
$var reg 128 "5 addkey_init_block [127:0] $end
$var reg 128 "6 addkey_main_block [127:0] $end
$var reg 128 "7 addkey_final_block [127:0] $end
$upscope $end


$scope begin sword_ctr $end
$upscope $end


$scope begin round_ctr $end
$upscope $end


$scope begin encipher_ctrl $end
$var reg 4 "8 num_rounds [3:0] $end
$upscope $end

$upscope $end


$scope module dec_block $end
$var wire 1 - clk $end
$var wire 1 . reset_n $end
$var wire 1 I next $end
$var wire 1 4 keylen $end
$var wire 4 J round [3:0] $end
$var wire 128 B round_key [127:0] $end
$var wire 128 5 block [127:0] $end
$var wire 128 K new_block [127:0] $end
$var wire 1 L ready $end
$var reg 2 "9 sword_ctr_reg [1:0] $end
$var reg 2 ": sword_ctr_new [1:0] $end
$var reg 1 "; sword_ctr_we $end
$var reg 1 "< sword_ctr_inc $end
$var reg 1 "= sword_ctr_rst $end
$var reg 4 J round_ctr_reg [3:0] $end
$var reg 4 "> round_ctr_new [3:0] $end
$var reg 1 "? round_ctr_we $end
$var reg 1 "@ round_ctr_set $end
$var reg 1 "A round_ctr_dec $end
$var reg 128 "B block_new [127:0] $end
$var reg 32 "C block_w0_reg [31:0] $end
$var reg 32 "D block_w1_reg [31:0] $end
$var reg 32 "E block_w2_reg [31:0] $end
$var reg 32 "F block_w3_reg [31:0] $end
$var reg 1 "G block_w0_we $end
$var reg 1 "H block_w1_we $end
$var reg 1 "I block_w2_we $end
$var reg 1 "J block_w3_we $end
$var reg 1 L ready_reg $end
$var reg 1 "K ready_new $end
$var reg 1 "L ready_we $end
$var reg 2 "M dec_ctrl_reg [1:0] $end
$var reg 2 "N dec_ctrl_new [1:0] $end
$var reg 1 "O dec_ctrl_we $end
$var reg 32 "P tmp_sboxw [31:0] $end
$var wire 32 "Q new_sboxw [31:0] $end
$var reg 3 "R update_type [2:0] $end

$scope function gm2 $end
$var reg 8 "S gm2 [7:0] $end
$var reg 8 "T op [7:0] $end
$upscope $end


$scope function gm3 $end
$var reg 8 "U gm3 [7:0] $end
$var reg 8 "V op [7:0] $end
$upscope $end


$scope function gm4 $end
$var reg 8 "W gm4 [7:0] $end
$var reg 8 "X op [7:0] $end
$upscope $end


$scope function gm8 $end
$var reg 8 "Y gm8 [7:0] $end
$var reg 8 "Z op [7:0] $end
$upscope $end


$scope function gm09 $end
$var reg 8 "[ gm09 [7:0] $end
$var reg 8 "\ op [7:0] $end
$upscope $end


$scope function gm11 $end
$var reg 8 "] gm11 [7:0] $end
$var reg 8 "^ op [7:0] $end
$upscope $end


$scope function gm13 $end
$var reg 8 "_ gm13 [7:0] $end
$var reg 8 "` op [7:0] $end
$upscope $end


$scope function gm14 $end
$var reg 8 "a gm14 [7:0] $end
$var reg 8 "b op [7:0] $end
$upscope $end


$scope function inv_mixw $end
$var reg 32 "c inv_mixw [31:0] $end
$var reg 32 "d w [31:0] $end
$var reg 8 "e b0 [7:0] $end
$var reg 8 "f b1 [7:0] $end
$var reg 8 "g b2 [7:0] $end
$var reg 8 "h b3 [7:0] $end
$var reg 8 "i mb0 [7:0] $end
$var reg 8 "j mb1 [7:0] $end
$var reg 8 "k mb2 [7:0] $end
$var reg 8 "l mb3 [7:0] $end
$upscope $end


$scope function inv_mixcolumns $end
$var reg 128 "m inv_mixcolumns [127:0] $end
$var reg 128 "n data [127:0] $end
$var reg 32 "o w0 [31:0] $end
$var reg 32 "p w1 [31:0] $end
$var reg 32 "q w2 [31:0] $end
$var reg 32 "r w3 [31:0] $end
$var reg 32 "s ws0 [31:0] $end
$var reg 32 "t ws1 [31:0] $end
$var reg 32 "u ws2 [31:0] $end
$var reg 32 "v ws3 [31:0] $end
$upscope $end


$scope function inv_shiftrows $end
$var reg 128 "w inv_shiftrows [127:0] $end
$var reg 128 "x data [127:0] $end
$var reg 32 "y w0 [31:0] $end
$var reg 32 "z w1 [31:0] $end
$var reg 32 "{ w2 [31:0] $end
$var reg 32 "| w3 [31:0] $end
$var reg 32 "} ws0 [31:0] $end
$var reg 32 "~ ws1 [31:0] $end
$var reg 32 #! ws2 [31:0] $end
$var reg 32 #" ws3 [31:0] $end
$upscope $end


$scope function addroundkey $end
$var reg 128 ## addroundkey [127:0] $end
$var reg 128 #$ data [127:0] $end
$var reg 128 #% rkey [127:0] $end
$upscope $end


$scope begin reg_update $end
$upscope $end


$scope begin round_logic $end
$var reg 128 #& old_block [127:0] $end
$var reg 128 #' inv_shiftrows_block [127:0] $end
$var reg 128 #( inv_mixcolumns_block [127:0] $end
$var reg 128 #) addkey_block [127:0] $end
$upscope $end


$scope begin sword_ctr $end
$upscope $end


$scope begin round_ctr $end
$upscope $end


$scope begin decipher_ctrl $end
$upscope $end


$scope module inv_sbox_inst $end
$var wire 32 "P sboxw [31:0] $end
$var wire 32 "Q new_sboxw [31:0] $end
$upscope $end

$upscope $end


$scope module keymem $end
$var wire 1 - clk $end
$var wire 1 . reset_n $end
$var wire 256 3 key [255:0] $end
$var wire 1 4 keylen $end
$var wire 1 0 init $end
$var wire 4 N round [3:0] $end
$var wire 128 B round_key [127:0] $end
$var wire 1 C ready $end
$var wire 32 P sboxw [31:0] $end
$var wire 32 R new_sboxw [31:0] $end
$var reg 128 #* key_mem_new [127:0] $end
$var reg 1 #+ key_mem_we $end
$var reg 128 #, prev_key0_reg [127:0] $end
$var reg 128 #- prev_key0_new [127:0] $end
$var reg 1 #. prev_key0_we $end
$var reg 128 #/ prev_key1_reg [127:0] $end
$var reg 128 #0 prev_key1_new [127:0] $end
$var reg 1 #1 prev_key1_we $end
$var reg 4 #2 round_ctr_reg [3:0] $end
$var reg 4 #3 round_ctr_new [3:0] $end
$var reg 1 #4 round_ctr_rst $end
$var reg 1 #5 round_ctr_inc $end
$var reg 1 #6 round_ctr_we $end
$var reg 3 #7 key_mem_ctrl_reg [2:0] $end
$var reg 3 #8 key_mem_ctrl_new [2:0] $end
$var reg 1 #9 key_mem_ctrl_we $end
$var reg 1 C ready_reg $end
$var reg 1 #: ready_new $end
$var reg 1 #; ready_we $end
$var reg 8 #< rcon_reg [7:0] $end
$var reg 8 #= rcon_new [7:0] $end
$var reg 1 #> rcon_we $end
$var reg 1 #? rcon_set $end
$var reg 1 #@ rcon_next $end
$var reg 32 P tmp_sboxw [31:0] $end
$var reg 1 #A round_key_update $end
$var reg 128 B tmp_round_key [127:0] $end

$scope begin reg_update $end
$var integer 32 #B i $end
$upscope $end


$scope begin key_mem_read $end
$upscope $end


$scope begin round_key_gen $end
$var reg 32 #C w0 [31:0] $end
$var reg 32 #D w1 [31:0] $end
$var reg 32 #E w2 [31:0] $end
$var reg 32 #F w3 [31:0] $end
$var reg 32 #G w4 [31:0] $end
$var reg 32 #H w5 [31:0] $end
$var reg 32 #I w6 [31:0] $end
$var reg 32 #J w7 [31:0] $end
$var reg 32 #K k0 [31:0] $end
$var reg 32 #L k1 [31:0] $end
$var reg 32 #M k2 [31:0] $end
$var reg 32 #N k3 [31:0] $end
$var reg 32 #O rconw [31:0] $end
$var reg 32 #P rotstw [31:0] $end
$var reg 32 #Q tw [31:0] $end
$var reg 32 #R trw [31:0] $end
$upscope $end


$scope begin rcon_logic $end
$var reg 8 #S tmp_rcon [7:0] $end
$upscope $end


$scope begin round_ctr $end
$upscope $end


$scope begin key_mem_ctrl $end
$var reg 4 #T num_rounds [3:0] $end
$upscope $end

$upscope $end


$scope module sbox_inst $end
$var wire 32 Q sboxw [31:0] $end
$var wire 32 R new_sboxw [31:0] $end
$upscope $end

$upscope $end

$upscope $end

$enddefinitions $end

#0
$dumpvars
0!
b00000000000000000000000000000000000000000000000000000000000000000000000000000000000000000000000000000000000000000000000000000000 +
bxxxxxxxxxxxxxxxxxxxxxxxxxxxxxxxxxxxxxxxxxxxxxxxxxxxxxxxxxxxxxxxxxxxxxxxxxxxxxxxxxxxxxxxxxxxxxxxxxxxxxxxxxxxxxxxxxxxxxxxxxxxxxxxx *
bxxxxxxxxxxxxxxxxxxxxxxxxxxxxxxxxxxxxxxxxxxxxxxxxxxxxxxxxxxxxxxxxxxxxxxxxxxxxxxxxxxxxxxxxxxxxxxxxxxxxxxxxxxxxxxxxxxxxxxxxxxxxxxxxxxxxxxxxxxxxxxxxxxxxxxxxxxxxxxxxxxxxxxxxxxxxxxxxxxxxxxxxxxxxxxxxxxxxxxxxxxxxxxxxxxxxxxxxxxxxxxxxxxxxxxxxxxxxxxxxxxxxxxxxxxxxxxxx (
0:
0a
0b
0c
0d
0"G
0"H
0"I
0"J
0"K
1L
0"L
0"?
0"<
0"=
0";
0"O
0I
0e
1G
0f
0i
0D
0A
0#9
0#+
0#:
0C
0#;
0#5
0#4
0#6
1O
0#.
0#1
0#@
1#?
1#>
0?
1>
0@
0<
0;
0=
0"A
0[
0Z
0"@
0Y
0#A
0V
0W
0U
b00000000000000000000000000000000000000000000000000000000000000000000000000000000000000000000000000000000000000000000000000000000 "/
b00000000000000000000000000000000000000000000000000000000000000000000000000000000000000000000000000000000000000000000000000000000 "0
b00000000000000000000000000000000000000000000000000000000000000000000000000000000000000000000000000000000000000000000000000000000 "1
b00 9
b00 8
b00000000000000000000000000000000000000000000000000000000000000000000000000000000000000000000000000000000000000000000000000000000 \
b00000000000000000000000000000000 ]
b00000000000000000000000000000000 ^
b00000000000000000000000000000000 _
b00000000000000000000000000000000 `
bxxxxxxxxxxxxxxxxxxxxxxxxxxxxxxxxxxxxxxxxxxxxxxxxxxxxxxxxxxxxxxxxxxxxxxxxxxxxxxxxxxxxxxxxxxxxxxxxxxxxxxxxxxxxxxxxxxxxxxxxxxxxxxxx #$
bxxxxxxxxxxxxxxxxxxxxxxxxxxxxxxxxxxxxxxxxxxxxxxxxxxxxxxxxxxxxxxxxxxxxxxxxxxxxxxxxxxxxxxxxxxxxxxxxxxxxxxxxxxxxxxxxxxxxxxxxxxxxxxxx ##
bxxxxxxxxxxxxxxxxxxxxxxxxxxxxxxxxxxxxxxxxxxxxxxxxxxxxxxxxxxxxxxxxxxxxxxxxxxxxxxxxxxxxxxxxxxxxxxxxxxxxxxxxxxxxxxxxxxxxxxxxxxxxxxxx #%
b00000000000000000000000000000000000000000000000000000000000000000000000000000000000000000000000000000000000000000000000000000000 "B
b00000000000000000000000000000000 "C
b00000000000000000000000000000000 "D
b00000000000000000000000000000000 "E
b00000000000000000000000000000000 "F
bxxxxxxxx "S
bxxxxxxxx "T
b01010010010100100101001001010010 "Q
b0000 ">
b0000 J
b00 ":
b00 "9
b000 "R
b00 "N
b00 "M
b00000000000000000000000000000000000000000000000000000000000000000000000000000000000000000000000000000000000000000000000000000000 K
b00000000000000000000000000000000 H
b00 h
b00 g
b00000000000000000000000000000000000000000000000000000000000000000000000000000000000000000000000000000000000000000000000000000000 F
b1010 "8
bxxxxxxxx "[
bxxxxxxxx "\
bxxxxxxxx "]
bxxxxxxxx "^
bxxxxxxxx "_
bxxxxxxxx "`
bxxxxxxxx "a
bxxxxxxxx "b
b00000000 k
b00000000 l
b00000000 m
b00000000 n
bxxxxxxxx "W
bxxxxxxxx "X
bxxxxxxxx "Y
bxxxxxxxx "Z
bxxxxxxxxxxxxxxxxxxxxxxxxxxxxxxxxxxxxxxxxxxxxxxxxxxxxxxxxxxxxxxxxxxxxxxxxxxxxxxxxxxxxxxxxxxxxxxxxxxxxxxxxxxxxxxxxxxxxxxxxxxxxxxxx "n
bxxxxxxxxxxxxxxxxxxxxxxxxxxxxxxxxxxxxxxxxxxxxxxxxxxxxxxxxxxxxxxxxxxxxxxxxxxxxxxxxxxxxxxxxxxxxxxxxxxxxxxxxxxxxxxxxxxxxxxxxxxxxxxxx "m
bxxxxxxxxxxxxxxxxxxxxxxxxxxxxxxxx "s
bxxxxxxxxxxxxxxxxxxxxxxxxxxxxxxxx "t
bxxxxxxxxxxxxxxxxxxxxxxxxxxxxxxxx "u
bxxxxxxxxxxxxxxxxxxxxxxxxxxxxxxxx "v
bxxxxxxxxxxxxxxxxxxxxxxxxxxxxxxxx "c
bxxxxxxxx "i
bxxxxxxxx "j
bxxxxxxxx "k
bxxxxxxxx "l
bxxxxxxxxxxxxxxxxxxxxxxxxxxxxxxxx "d
bxxxxxxxxxxxxxxxxxxxxxxxxxxxxxxxxxxxxxxxxxxxxxxxxxxxxxxxxxxxxxxxxxxxxxxxxxxxxxxxxxxxxxxxxxxxxxxxxxxxxxxxxxxxxxxxxxxxxxxxxxxxxxxxx "x
bxxxxxxxxxxxxxxxxxxxxxxxxxxxxxxxxxxxxxxxxxxxxxxxxxxxxxxxxxxxxxxxxxxxxxxxxxxxxxxxxxxxxxxxxxxxxxxxxxxxxxxxxxxxxxxxxxxxxxxxxxxxxxxxx "w
bxxxxxxxxxxxxxxxxxxxxxxxxxxxxxxxx "}
bxxxxxxxxxxxxxxxxxxxxxxxxxxxxxxxx "~
bxxxxxxxxxxxxxxxxxxxxxxxxxxxxxxxx #!
bxxxxxxxxxxxxxxxxxxxxxxxxxxxxxxxx #"
b1010 #T
b000 #8
b000 #7
b00000000000000000000000000000000000000000000000000000000000000000000000000000000000000000000000000000000000000000000000000000000 #*
b0000 #3
b0000 #2
b00000000000000000000000000000000 P
b00000000000000000000000000000000000000000000000000000000000000000000000000000000000000000000000000000000000000000000000000000000 z
b00000000000000000000000000000000000000000000000000000000000000000000000000000000000000000000000000000000000000000000000000000000 y
b00000000000000000000000000000000 "!
b00000000000000000000000000000000 ""
b00000000000000000000000000000000 "#
b00000000000000000000000000000000 "$
b00000000 u
b00000000 v
b00000000 w
b00000000 x
b00000000000000000000000000000000 o
b00000000000000000000000000000000 p
b00000000000000000000000000000000000000000000000000000000000000000000000000000000000000000000000000000000000000000000000000000000 M
b0000 N
b00000000000000000000000000000000 Q
b01100011011000110110001101100011 R
b00000000000000000000000000000000000000000000000000000000000000000000000000000000000000000000000000000000000000000000000000000000 #-
b00000000000000000000000000000000000000000000000000000000000000000000000000000000000000000000000000000000000000000000000000000000 #,
b00000000000000000000000000000000000000000000000000000000000000000000000000000000000000000000000000000000000000000000000000000000 #0
b00000000000000000000000000000000000000000000000000000000000000000000000000000000000000000000000000000000000000000000000000000000 #/
b00000000 #S
b10001101 #=
b00000000 #<
b00000000000000000000000000001111 #B
b0000 X
b0000 E
b00000000000000000000000000000000 #K
b00000000000000000000000000000000 #L
b00000000000000000000000000000000 #M
b00000000000000000000000000000000 #N
b00000000000000000000000000000000 #O
b01100011011000110110001101100011 #P
b01100011011000110110001101100011 #R
b01100011011000110110001101100011 #Q
b00000000000000000000000000000000 #C
b00000000000000000000000000000000 #D
b00000000000000000000000000000000 #E
b00000000000000000000000000000000 #F
b00000000000000000000000000000000 #G
b00000000000000000000000000000000 #H
b00000000000000000000000000000000 #I
b00000000000000000000000000000000 #J
b00000000000000000000000000000000000000000000000000000000000000000000000000000000000000000000000000000000000000000000000000000000 "7
bxxxxxxxxxxxxxxxxxxxxxxxxxxxxxxxxxxxxxxxxxxxxxxxxxxxxxxxxxxxxxxxxxxxxxxxxxxxxxxxxxxxxxxxxxxxxxxxxxxxxxxxxxxxxxxxxxxxxxxxxxxxxxxxx "5
b00000000000000000000000000000000000000000000000000000000000000000000000000000000000000000000000000000000000000000000000000000000 "6
b00000000000000000000000000000000000000000000000000000000000000000000000000000000000000000000000000000000000000000000000000000000 "4
b00000000000000000000000000000000000000000000000000000000000000000000000000000000000000000000000000000000000000000000000000000000 "2
b00000000000000000000000000000000000000000000000000000000000000000000000000000000000000000000000000000000000000000000000000000000 "3
b00000000000000000000000000000000000000000000000000000000000000000000000000000000000000000000000000000000000000000000000000000000 #)
b00000000000000000000000000000000000000000000000000000000000000000000000000000000000000000000000000000000000000000000000000000000 #&
b00000000000000000000000000000000000000000000000000000000000000000000000000000000000000000000000000000000000000000000000000000000 #(
b00000000000000000000000000000000000000000000000000000000000000000000000000000000000000000000000000000000000000000000000000000000 #'
b00000000000000000000000000000000000000000000000000000000000000000000000000000000000000000000000000000000000000000000000000000000 "&
b00000000000000000000000000000000000000000000000000000000000000000000000000000000000000000000000000000000000000000000000000000000 "%
b00000000000000000000000000000000 "+
b00000000000000000000000000000000 ",
b00000000000000000000000000000000 "-
b00000000000000000000000000000000 ".
b00 T
b00 S
bxxxxxxxx q
bxxxxxxxxxxxxxxxxxxxxxxxxxxxxxxxx "o
bxxxxxxxx r
bxxxxxxxxxxxxxxxxxxxxxxxxxxxxxxxx "p
bxxxxxxxx s
bxxxxxxxxxxxxxxxxxxxxxxxxxxxxxxxx "q
bxxxxxxxx t
bxxxxxxxxxxxxxxxxxxxxxxxxxxxxxxxx "r
bxxxxxxxxxxxxxxxxxxxxxxxxxxxxxxxx {
bxxxxxxxxxxxxxxxxxxxxxxxxxxxxxxxx "y
bxxxxxxxxxxxxxxxxxxxxxxxxxxxxxxxx |
bxxxxxxxxxxxxxxxxxxxxxxxxxxxxxxxx "z
bxxxxxxxxxxxxxxxxxxxxxxxxxxxxxxxx }
bxxxxxxxxxxxxxxxxxxxxxxxxxxxxxxxx "{
bxxxxxxxxxxxxxxxxxxxxxxxxxxxxxxxx ~
bxxxxxxxxxxxxxxxxxxxxxxxxxxxxxxxx "|
bxxxxxxxxxxxxxxxxxxxxxxxxxxxxxxxx "'
bxxxxxxxxxxxxxxxxxxxxxxxxxxxxxxxx "(
bxxxxxxxxxxxxxxxxxxxxxxxxxxxxxxxx ")
bxxxxxxxxxxxxxxxxxxxxxxxxxxxxxxxx "*
bxxxxxxxx "e
bxxxxxxxx "f
bxxxxxxxx "g
bxxxxxxxx "h
b00000000000000000000000000000000000000000000000000000000000000000000000000000000000000000000000000000000000000000000000000000000 B
b00000000000000000000000000000000 "P
b000 j
bxxxxxxxx "V
bxxxxxxxx "U
bxxxxxxxxxxxxxxxxxxxxxxxxxxxxxxxxxxxxxxxxxxxxxxxxxxxxxxxxxxxxxxxxxxxxxxxxxxxxxxxxxxxxxxxxxxxxxxxxxxxxxxxxxxxxxxxxxxxxxxxxxxxxxxxxxxxxxxxxxxxxxxxxxxxxxxxxxxxxxxxxxxxxxxxxxxxxxxxxxxxxxxxxxxxxxxxxxxxxxxxxxxxxxxxxxxxxxxxxxxxxxxxxxxxxxxxxxxxxxxxxxxxxxxxxxxxxxxxx 3
bxxxxxxxxxxxxxxxxxxxxxxxxxxxxxxxxxxxxxxxxxxxxxxxxxxxxxxxxxxxxxxxxxxxxxxxxxxxxxxxxxxxxxxxxxxxxxxxxxxxxxxxxxxxxxxxxxxxxxxxxxxxxxxxx 5
b00000000000000000000000000000000000000000000000000000000000000000000000000000000000000000000000000000000000000000000000000000000 6
0-
0/
00
04
01
12
0.
07
0"
0$
0%
0)
0&
1'
0#
0,
$end
b00000000 q
b00000000 r
b00000000 s
b00000000 t
b00000000000000000000000000000000 {
b00000000000000000000000000000000 |
b00000000000000000000000000000000 }
b00000000000000000000000000000000 ~
b00000000000000000000000000000000 "'
b00000000000000000000000000000000 "(
b00000000000000000000000000000000 ")
b00000000000000000000000000000000 "*
#5
1!
1"
1-
1#
1.
b10001101 #<
b10001101000000000000000000000000 #O
b11101110011000110110001101100011 #R
b00000001 #S
#10
0!
0"
0-
#15
1!
1"
1-
#20
0!
0"
0-
1)
14
1%
10
b1101110010001110001100011111100100110101110010101101100111001100011101011001000101000100011000101100001101111001110100100000001001001100010010101111000010101001001010001100111101100011000100001000000111111011000111100100011101101000110101001111000011110010 (
b1101110010001110001100011111100100110101110010101101100111001100011101011001000101000100011000101100001101111001110100100000001001001100010010101111000010101001001010001100111101100011000100001000000111111011000111100100011101101000110101001111000011110010 3
1$
1/
b1110 "8
1#;
b001 #8
1#9
b1110 #T
1A
1@
1=
b01 9
1:
#25
1!
1"
1-
b001 #7
0>
02
0'
b01 8
0#;
1#4
b010 #8
0@
0=
b00 9
0:
1#6
#30
0!
0"
0-
#35
1!
1"
1-
b010 #7
1#A
0#4
1#5
b000 #8
0#9
b11011100100011100011000111111001001101011100101011011001110011000111010110010001010001000110001011000011011110011101001000000010 #*
1#+
b11011100100011100011000111111001001101011100101011011001110011000111010110010001010001000110001011000011011110011101001000000010 #-
1#.
0#?
b0001 #3
b00000000 #=
0#>
#40
0!
0"
0-
0%
00
#45
1!
1"
1-
b0001 #2
b11011100100011100011000111111001001101011100101011011001110011000111010110010001010001000110001011000011011110011101001000000010 #,
b01001100010010101111000010101001001010001100111101100011000100001000000111111011000111100100011101101000110101001111000011110010 #*
b00000000000000000000000000000000000000000000000000000000000000000000000000000000000000000000000000000000000000000000000000000000 #-
0#.
b01001100010010101111000010101001001010001100111101100011000100001000000111111011000111100100011101101000110101001111000011110010 #0
1#1
1#@
b11011100100011100011000111111001 #C
b00110101110010101101100111001100 #D
b01110101100100010100010001100010 #E
b11000011011110011101001000000010 #F
b0010 #3
b11011100100011100011000111111001001101011100101011011001110011000111010110010001010001000110001011000011011110011101001000000010 B
b00000001 #=
1#>
b11011100100011100011000111111001001101011100101011011001110011000111010110010001010001000110001011000011011110011101001000000010 "6
b11011100100011100011000111111001001101011100101011011001110011000111010110010001010001000110001011000011011110011101001000000010 "7
b11011100100011100011000111111001001101011100101011011001110011000111010110010001010001000110001011000011011110011101001000000010 "/
b11011100100011100011000111111001001101011100101011011001110011000111010110010001010001000110001011000011011110011101001000000010 "1
#50
0!
0"
0-
#55
1!
1"
1-
b00000001 #<
b0010 #2
b01001100010010101111000010101001001010001100111101100011000100001000000111111011000111100100011101101000110101001111000011110010 #/
b10111110111011010101001010011010100010110010011110001011010101101111111010110110110011110011010000111101110011110001110100110110 #*
b01001100010010101111000010101001001010001100111101100011000100001000000111111011000111100100011101101000110101001111000011110010 #-
1#.
b10111110111011010101001010011010100010110010011110001011010101101111111010110110110011110011010000111101110011110001110100110110 #0
b10111110111011010101001010011010 #K
b10001011001001111000101101010110 #L
b11111110101101101100111100110100 #M
b00111101110011110001110100110110 #N
0#@
b01001100010010101111000010101001 #G
b00101000110011110110001100010000 #H
b10000001111110110001111001000111 #I
b01101000110101001111000011110010 #J
b00000001000000000000000000000000 #O
b01101000110101001111000011110010 P
b01100010011000110110001101100011 #R
b00000000 #=
0#>
b00000010 #S
b0011 #3
b01101000110101001111000011110010 Q
b01000101010010001000110010001001 R
b10010101000000101011100010111100101000001100100001100001011100001101010101011001001001010001001000010110001000001111011100010000 #*
b10010101000000101011100010111100101000001100100001100001011100001101010101011001001001010001001000010110001000001111011100010000 #0
b10010101000000101011100010111100 #K
b10100000110010000110000101110000 #L
b11010101010110010010010100010010 #M
b00010110001000001111011100010000 #N
b01001000100011001000100101000101 #P
b01001001100011001000100101000101 #R
b01000101010010001000110010001001 #Q
#60
0!
0"
0-
